[
    {
        "newfile": "heart_healthy_sample1_02",
        "scan": "1",
        "detector": "eiger",
        "stitch": {
            "horz": "9",
            "vert": "9"
        },
        "stxm": {
            "horz": "26",
            "vert": "26"
        },
        "show": [
            {
                "signal": "none",
                "roi": "none",
                "cmin": "10e3",
                "cmax": "30e3"
            },
            {
                "signal": "none",
                "roi": "roi1",
                "cmin": "200",
                "cmax": "6e3"
            },
            {
                "signal": "Itot",
                "roi": "roi9",
                "cmin": "6e3",
                "cmax": "22e3"
            },
            {
                "signal": "none",
                "roi": "roi9",
                "cmin": "196",
                "cmax": "202"
            },
            {
                "signal": "none",
                "roi": "roi9",
                "cmin": "200",
                "cmax": "206"
            }
        ]
    }
]
