0	1	12	137019073
1	13	24	137019074
2	25	36	137019075
3	37	48	137019076
4	49	60	137019077
5	61	72	137019078
6	73	84	137019079
7	85	96	137019080
8	97	108	137019081
9	109	120	137019082
10	121	132	137019083
11	133	144	137019084
12	145	156	137019085
13	157	168	137019086
14	169	180	137019087
15	181	192	137019088
16	193	204	137019089
17	205	216	137019090
18	217	228	137019091
19	229	240	137019092
20	241	252	137019093
21	253	264	137019094
22	265	276	137019095
23	277	288	137019096
24	289	300	137019097
25	301	312	137019098
26	313	324	137019099
27	325	336	137019100
28	337	348	137019101
29	349	360	137019102
30	361	372	137019103
31	373	384	137019104
32	385	396	137019105
33	397	408	137019106
34	409	420	137019107
35	421	432	137019108
36	433	444	137019109
37	445	456	137019110
38	457	468	137019111
39	469	480	137019112
40	481	492	137019113
41	493	504	137019114
42	505	516	137019115
43	517	528	137019116
44	529	540	137019117
45	541	552	137019118
46	553	564	137019119
47	565	576	137019120
48	577	588	137019121
49	589	600	137019122
50	601	612	137019123
51	613	624	137019124
52	625	636	137019125
53	637	648	137019126
54	649	660	137019127
55	661	672	137019128
56	673	684	137019129
57	685	696	137019130
58	697	708	137019131
59	709	720	137019132
60	721	732	137019133
61	733	744	137019134
62	745	756	137019135
63	757	768	137019136
64	769	780	137019137
65	781	792	137019138
66	793	804	137019139
67	805	816	137019140
68	817	828	137019141
69	829	840	137019142
70	841	852	137019143
71	853	864	137019144
72	865	876	137019145
73	877	888	137019146
74	889	900	137019147
75	901	912	137019148
76	913	924	137019149
77	925	936	137019150
78	937	948	137019151
79	949	960	137019152
80	961	972	137019153
81	973	984	137019154
82	985	996	137019155
83	997	1008	137019156
84	1009	1020	137019157
85	1021	1032	137019158
86	1033	1044	137019159
87	1045	1056	137019160
88	1057	1068	137019161
89	1069	1080	137019162
90	1081	1092	137019163
91	1093	1104	137019164
92	1105	1116	137019165
93	1117	1128	137019166
94	1129	1140	137019167
95	1141	1152	137019168
96	1153	1164	137019169
97	1165	1176	137019170
98	1177	1188	137019171
99	1189	1200	137019172
100	1201	1212	137019173
101	1213	1224	137019174
102	1225	1236	137019175
103	1237	1248	137019176
104	1249	1260	137019177
105	1261	1272	137019178
106	1273	1284	137019179
107	1285	1296	137019180
108	1297	1308	137019181
109	1309	1320	137019182
110	1321	1332	137019183
111	1333	1344	137019184
112	1345	1356	137019185
113	1357	1368	137019186
114	1369	1380	137019187
115	1381	1392	137019188
116	1393	1404	137019189
117	1405	1416	137019190
118	1417	1428	137019191
119	1429	1440	137019192
120	1441	1452	137019193
121	1453	1464	137019194
122	1465	1476	137019195
123	1477	1488	137019196
124	1489	1500	137019197
125	1501	1512	137019198
126	1513	1524	137019199
127	1525	1536	137019200
128	1537	1548	137019201
129	1549	1560	137019202
130	1561	1572	137019203
131	1573	1584	137019204
132	1585	1596	137019205
133	1597	1608	137019206
134	1609	1620	137019207
135	1621	1632	137019208
136	1633	1644	137019209
137	1645	1656	137019210
138	1657	1668	137019211
139	1669	1680	137019212
140	1681	1692	137019213
141	1693	1704	137019214
142	1705	1716	137019215
143	1717	1728	137019216
144	1729	1740	137019217
145	1741	1752	137019218
146	1753	1764	137019219
147	1765	1776	137019220
148	1777	1788	137019221
149	1789	1800	137019222
150	1801	1812	137019223
151	1813	1824	137019224
152	1825	1836	137019225
153	1837	1848	137019226
154	1849	1860	137019227
155	1861	1872	137019228
156	1873	1884	137019229
157	1885	1896	137019230
158	1897	1908	137019231
159	1909	1920	137019232
160	1921	1932	137019233
161	1933	1944	137019234
162	1945	1956	137019235
163	1957	1968	137019236
164	1969	1980	137019237
165	1981	1992	137019238
166	1993	2004	137019239
167	2005	2016	137019240
168	2017	2028	137019241
169	2029	2040	137019242
170	2041	2052	137019243
171	2053	2064	137019244
172	2065	2076	137019245
173	2077	2088	137019246
174	2089	2100	137019247
175	2101	2112	137019248
176	2113	2124	137019249
177	2125	2136	137019250
178	2137	2148	137019251
179	2149	2160	137019252
180	2161	2172	137019253
181	2173	2184	137019254
182	2185	2196	137019255
183	2197	2208	137019256
184	2209	2220	137019257
185	2221	2232	137019258
186	2233	2244	137019259
187	2245	2256	137019260
188	2257	2268	137019261
189	2269	2280	137019262
190	2281	2292	137019263
191	2293	2304	137019264
192	2305	2316	137019265
193	2317	2328	137019266
194	2329	2340	137019267
195	2341	2352	137019268
196	2353	2364	137019269
197	2365	2376	137019270
198	2377	2388	137019271
199	2389	2400	137019272
200	2401	2412	137019273
201	2413	2424	137019274
202	2425	2436	137019275
203	2437	2448	137019276
204	2449	2460	137019277
205	2461	2472	137019278
206	2473	2484	137019279
207	2485	2496	137019280
208	2497	2508	137019281
209	2509	2520	137019282
210	2521	2532	137019283
211	2533	2544	137019284
212	2545	2556	137019285
213	2557	2568	137019286
214	2569	2580	137019287
215	2581	2592	137019288
216	2593	2604	137019289
217	2605	2616	137019290
218	2617	2628	137019291
219	2629	2640	137019292
220	2641	2652	137019293
221	2653	2664	137019294
222	2665	2676	137019295
223	2677	2688	137019296
224	2689	2700	137019297
225	2701	2712	137019298
226	2713	2724	137019299
227	2725	2736	137019300
228	2737	2748	137019301
229	2749	2760	137019302
230	2761	2772	137019303
231	2773	2784	137019304
232	2785	2796	137019305
233	2797	2808	137019306
234	2809	2820	137019307
235	2821	2832	137019308
236	2833	2844	137019309
237	2845	2856	137019310
238	2857	2868	137019311
239	2869	2880	137019312
240	2881	2892	137019313
241	2893	2904	137019314
242	2905	2916	137019315
243	2917	2928	137019316
244	2929	2940	137019317
245	2941	2952	137019318
246	2953	2964	137019319
247	2965	2976	137019320
248	2977	2988	137019321
249	2989	3000	137019322
250	3001	3012	137019323
251	3013	3024	137019324
252	3025	3036	137019325
253	3037	3048	137019326
254	3049	3060	137019327
255	3061	3072	137019328
256	3073	3084	137019329
257	3085	3096	137019330
258	3097	3108	137019331
259	3109	3120	137019332
260	3121	3132	137019333
261	3133	3144	137019334
262	3145	3156	137019335
263	3157	3168	137019336
264	3169	3180	137019337
265	3181	3192	137019338
266	3193	3204	137019339
267	3205	3216	137019340
268	3217	3228	137019341
269	3229	3240	137019342
270	3241	3252	137019343
271	3253	3264	137019344
272	3265	3276	137019345
273	3277	3288	137019346
274	3289	3300	137019347
275	3301	3312	137019348
276	3313	3324	137019349
277	3325	3336	137019350
278	3337	3348	137019351
279	3349	3360	137019352
280	3361	3372	137019353
281	3373	3384	137019354
282	3385	3396	137019355
283	3397	3408	137019356
284	3409	3420	137019357
285	3421	3432	137019358
286	3433	3444	137019359
287	3445	3456	137019360
288	3457	3468	137019361
289	3469	3480	137019362
290	3481	3492	137019363
291	3493	3504	137019364
292	3505	3516	137019365
293	3517	3528	137019366
294	3529	3540	137019367
295	3541	3552	137019368
296	3553	3564	137019369
297	3565	3576	137019370
298	3577	3588	137019371
299	3589	3600	137019372
300	3601	3612	137019373
301	3613	3624	137019374
302	3625	3636	137019375
303	3637	3648	137019376
304	3649	3660	137019377
305	3661	3672	137019378
306	3673	3684	137019379
307	3685	3696	137019380
308	3697	3708	137019381
309	3709	3720	137019382
310	3721	3732	137019383
311	3733	3744	137019384
312	3745	3756	137019385
313	3757	3768	137019386
314	3769	3780	137019387
315	3781	3792	137019388
316	3793	3804	137019389
317	3805	3816	137019390
318	3817	3828	137019391
319	3829	3840	137019392
320	3841	3852	137019393
321	3853	3864	137019394
322	3865	3876	137019395
323	3877	3888	137019396
324	3889	3900	137019397
325	3901	3912	137019398
326	3913	3924	137019399
327	3925	3936	137019400
328	3937	3948	137019401
329	3949	3960	137019402
330	3961	3972	137019403
331	3973	3984	137019404
332	3985	3996	137019405
333	3997	4008	137019406
334	4009	4020	137019407
335	4021	4032	137019408
336	4033	4044	137019409
337	4045	4056	137019410
338	4057	4068	137019411
339	4069	4080	137019412
340	4081	4092	137019413
341	4093	4104	137019414
342	4105	4116	137019415
343	4117	4128	137019416
344	4129	4140	137019417
345	4141	4152	137019418
346	4153	4164	137019419
347	4165	4176	137019420
348	4177	4188	137019421
349	4189	4200	137019422
350	4201	4212	137019423
351	4213	4224	137019424
352	4225	4236	137019425
353	4237	4248	137019426
354	4249	4260	137019427
355	4261	4272	137019428
356	4273	4284	137019429
357	4285	4296	137019430
358	4297	4308	137019431
359	4309	4320	137019432
360	4321	4332	137019433
361	4333	4344	137019434
362	4345	4356	137019435
363	4357	4368	137019436
364	4369	4380	137019437
365	4381	4392	137019438
366	4393	4404	137019439
367	4405	4416	137019440
368	4417	4428	137019441
369	4429	4440	137019442
370	4441	4452	137019443
371	4453	4464	137019444
372	4465	4476	137019445
373	4477	4488	137019446
374	4489	4500	137019447
375	4501	4512	137019448
376	4513	4524	137019449
377	4525	4536	137019450
378	4537	4548	137019451
379	4549	4560	137019452
380	4561	4572	137019453
381	4573	4584	137019454
382	4585	4596	137019455
383	4597	4608	137019456
384	4609	4620	137019457
385	4621	4632	137019458
386	4633	4644	137019459
387	4645	4656	137019460
388	4657	4668	137019461
389	4669	4680	137019462
390	4681	4692	137019463
391	4693	4704	137019464
392	4705	4716	137019465
393	4717	4728	137019466
394	4729	4740	137019467
395	4741	4752	137019468
396	4753	4764	137019469
397	4765	4776	137019470
398	4777	4788	137019471
399	4789	4800	137019472
400	4801	4812	137019473
401	4813	4824	137019474
402	4825	4836	137019475
403	4837	4848	137019476
404	4849	4860	137019477
405	4861	4872	137019478
406	4873	4884	137019479
407	4885	4896	137019480
408	4897	4908	137019481
409	4909	4920	137019482
410	4921	4932	137019483
411	4933	4944	137019484
412	4945	4956	137019485
413	4957	4968	137019486
414	4969	4980	137019487
415	4981	4992	137019488
416	4993	5004	137019489
417	5005	5016	137019490
418	5017	5028	137019491
419	5029	5040	137019492
420	5041	5052	137019493
421	5053	5064	137019494
422	5065	5076	137019495
423	5077	5088	137019496
424	5089	5100	137019497
425	5101	5112	137019498
426	5113	5124	137019499
427	5125	5136	137019500
428	5137	5148	137019501
429	5149	5160	137019502
430	5161	5172	137019503
431	5173	5184	137019504
432	5185	5196	137019505
433	5197	5208	137019506
434	5209	5220	137019507
435	5221	5232	137019508
436	5233	5244	137019509
437	5245	5256	137019510
438	5257	5268	137019511
439	5269	5280	137019512
440	5281	5292	137019513
441	5293	5304	137019514
442	5305	5316	137019515
443	5317	5328	137019516
444	5329	5340	137019517
445	5341	5352	137019518
446	5353	5364	137019519
447	5365	5376	137019520
448	5377	5388	137019521
449	5389	5400	137019522
450	5401	5412	137019523
451	5413	5424	137019524
452	5425	5436	137019525
453	5437	5448	137019526
454	5449	5460	137019527
455	5461	5472	137019528
456	5473	5484	137019529
457	5485	5496	137019530
458	5497	5508	137019531
459	5509	5520	137019532
460	5521	5532	137019533
461	5533	5544	137019534
462	5545	5556	137019535
463	5557	5568	137019536
464	5569	5580	137019537
465	5581	5592	137019538
466	5593	5604	137019539
467	5605	5616	137019540
468	5617	5628	137019541
469	5629	5640	137019542
470	5641	5652	137019543
471	5653	5664	137019544
472	5665	5676	137019545
473	5677	5688	137019546
474	5689	5700	137019547
475	5701	5712	137019548
476	5713	5724	137019549
477	5725	5736	137019550
478	5737	5748	137019551
479	5749	5760	137019552
480	5761	5772	137019553
481	5773	5784	137019554
482	5785	5796	137019555
483	5797	5808	137019556
484	5809	5820	137019557
485	5821	5832	137019558
486	5833	5844	137019559
487	5845	5856	137019560
488	5857	5868	137019561
489	5869	5880	137019562
490	5881	5892	137019563
491	5893	5904	137019564
492	5905	5916	137019565
493	5917	5928	137019566
494	5929	5940	137019567
495	5941	5952	137019568
496	5953	5964	137019569
497	5965	5976	137019570
498	5977	5988	137019571
499	5989	6000	137019572
