0	1	12	137003340
1	13	24	137003341
2	25	36	137003342
3	37	48	137003343
4	49	60	137003344
5	61	72	137003345
6	73	84	137003346
7	85	96	137003347
8	97	108	137003348
9	109	120	137003349
10	121	132	137003350
11	133	144	137003351
12	145	156	137003352
13	157	168	137003353
14	169	180	137003354
15	181	192	137003355
16	193	204	137003356
17	205	216	137003357
18	217	228	137003358
19	229	240	137003359
20	241	252	137003360
21	253	264	137003361
22	265	276	137003362
23	277	288	137003363
24	289	300	137003364
25	301	312	137003365
26	313	324	137003366
27	325	336	137003367
28	337	348	137003368
29	349	360	137003369
30	361	372	137003370
31	373	384	137003371
32	385	396	137003372
33	397	408	137003373
34	409	420	137003374
35	421	432	137003375
36	433	444	137003376
37	445	456	137003377
38	457	468	137003378
39	469	480	137003379
40	481	492	137003380
41	493	504	137003381
42	505	516	137003382
43	517	528	137003383
44	529	540	137003384
45	541	552	137003385
46	553	564	137003386
47	565	576	137003387
48	577	588	137003388
49	589	600	137003389
50	601	612	137003390
51	613	624	137003391
52	625	636	137003392
53	637	648	137003393
54	649	660	137003394
55	661	672	137003395
56	673	684	137003396
57	685	696	137003397
58	697	708	137003398
59	709	720	137003399
60	721	732	137003400
61	733	744	137003401
62	745	756	137003402
63	757	768	137003403
64	769	780	137003404
65	781	792	137003405
66	793	804	137003406
67	805	816	137003407
68	817	828	137003408
69	829	840	137003409
70	841	852	137003410
71	853	864	137003411
72	865	876	137003412
73	877	888	137003413
74	889	900	137003414
75	901	912	137003415
76	913	924	137003416
77	925	936	137003417
78	937	948	137003418
79	949	960	137003419
80	961	972	137003420
81	973	984	137003421
82	985	996	137003422
83	997	1008	137003423
84	1009	1020	137003424
85	1021	1032	137003425
86	1033	1044	137003426
87	1045	1056	137003427
88	1057	1068	137003428
89	1069	1080	137003429
90	1081	1092	137003430
91	1093	1104	137003431
92	1105	1116	137003432
93	1117	1128	137003433
94	1129	1140	137003434
95	1141	1152	137003435
96	1153	1164	137003436
97	1165	1176	137003437
98	1177	1188	137003438
99	1189	1200	137003439
100	1201	1212	137003440
101	1213	1224	137003441
102	1225	1236	137003442
103	1237	1248	137003443
104	1249	1260	137003444
105	1261	1272	137003445
106	1273	1284	137003446
107	1285	1296	137003447
108	1297	1308	137003448
109	1309	1320	137003449
110	1321	1332	137003450
111	1333	1344	137003451
112	1345	1356	137003452
113	1357	1368	137003453
114	1369	1380	137003454
115	1381	1392	137003455
116	1393	1404	137003456
117	1405	1416	137003457
118	1417	1428	137003458
119	1429	1440	137003459
120	1441	1452	137003460
121	1453	1464	137003461
122	1465	1476	137003462
123	1477	1488	137003463
124	1489	1500	137003464
125	1501	1512	137003465
126	1513	1524	137003466
127	1525	1536	137003467
128	1537	1548	137003468
129	1549	1560	137003469
130	1561	1572	137003470
131	1573	1584	137003471
132	1585	1596	137003472
133	1597	1608	137003473
134	1609	1620	137003474
135	1621	1632	137003475
136	1633	1644	137003476
137	1645	1656	137003477
138	1657	1668	137003478
139	1669	1680	137003479
140	1681	1692	137003480
141	1693	1704	137003481
142	1705	1716	137003482
143	1717	1728	137003483
144	1729	1740	137003484
145	1741	1752	137003485
146	1753	1764	137003486
147	1765	1776	137003487
148	1777	1788	137003488
149	1789	1800	137003489
150	1801	1812	137003490
151	1813	1824	137003491
152	1825	1836	137003492
153	1837	1848	137003493
154	1849	1860	137003494
155	1861	1872	137003495
156	1873	1884	137003496
157	1885	1896	137003497
158	1897	1908	137003498
159	1909	1920	137003499
160	1921	1932	137003500
161	1933	1944	137003501
162	1945	1956	137003502
163	1957	1968	137003503
164	1969	1980	137003504
165	1981	1992	137003505
166	1993	2004	137003506
167	2005	2016	137003507
168	2017	2028	137003508
169	2029	2040	137003509
170	2041	2052	137003510
171	2053	2064	137003511
172	2065	2076	137003512
173	2077	2088	137003513
174	2089	2100	137003514
175	2101	2112	137003515
176	2113	2124	137003516
177	2125	2136	137003517
178	2137	2148	137003518
179	2149	2160	137003519
180	2161	2172	137003520
181	2173	2184	137003521
182	2185	2196	137003522
183	2197	2208	137003523
184	2209	2220	137003524
185	2221	2232	137003525
186	2233	2244	137003526
187	2245	2256	137003527
188	2257	2268	137003528
189	2269	2280	137003529
190	2281	2292	137003530
191	2293	2304	137003531
192	2305	2316	137003532
193	2317	2328	137003533
194	2329	2340	137003534
195	2341	2352	137003535
196	2353	2364	137003536
197	2365	2376	137003537
198	2377	2388	137003538
199	2389	2400	137003539
200	2401	2412	137003540
201	2413	2424	137003541
202	2425	2436	137003542
203	2437	2448	137003543
204	2449	2460	137003544
205	2461	2472	137003545
206	2473	2484	137003546
207	2485	2496	137003547
208	2497	2508	137003548
209	2509	2520	137003549
210	2521	2532	137003550
211	2533	2544	137003551
212	2545	2556	137003552
213	2557	2568	137003553
214	2569	2580	137003554
215	2581	2592	137003555
216	2593	2604	137003556
217	2605	2616	137003557
218	2617	2628	137003558
219	2629	2640	137003559
220	2641	2652	137003560
221	2653	2664	137003561
222	2665	2676	137003562
223	2677	2688	137003563
224	2689	2700	137003564
225	2701	2712	137003565
226	2713	2724	137003566
227	2725	2736	137003567
228	2737	2748	137003568
229	2749	2760	137003569
230	2761	2772	137003570
231	2773	2784	137003571
232	2785	2796	137003572
233	2797	2808	137003573
234	2809	2820	137003574
235	2821	2832	137003575
236	2833	2844	137003576
237	2845	2856	137003577
238	2857	2868	137003578
239	2869	2880	137003579
240	2881	2892	137003580
241	2893	2904	137003581
242	2905	2916	137003582
243	2917	2928	137003583
244	2929	2940	137003584
245	2941	2952	137003585
246	2953	2964	137003586
247	2965	2976	137003587
248	2977	2988	137003588
249	2989	3000	137003589
250	3001	3012	137003590
251	3013	3024	137003591
252	3025	3036	137003592
253	3037	3048	137003593
254	3049	3060	137003594
255	3061	3072	137003595
256	3073	3084	137003596
257	3085	3096	137003597
258	3097	3108	137003598
259	3109	3120	137003599
260	3121	3132	137003600
261	3133	3144	137003601
262	3145	3156	137003602
263	3157	3168	137003603
264	3169	3180	137003604
265	3181	3192	137003605
266	3193	3204	137003606
267	3205	3216	137003607
268	3217	3228	137003608
269	3229	3240	137003609
270	3241	3252	137003610
271	3253	3264	137003611
272	3265	3276	137003612
273	3277	3288	137003613
274	3289	3300	137003614
275	3301	3312	137003615
276	3313	3324	137003616
277	3325	3336	137003617
278	3337	3348	137003618
279	3349	3360	137003619
280	3361	3372	137003620
281	3373	3384	137003621
282	3385	3396	137003622
283	3397	3408	137003623
284	3409	3420	137003624
285	3421	3432	137003625
286	3433	3444	137003626
287	3445	3456	137003627
288	3457	3468	137003628
289	3469	3480	137003629
290	3481	3492	137003630
291	3493	3504	137003631
292	3505	3516	137003632
293	3517	3528	137003633
294	3529	3540	137003634
295	3541	3552	137003635
296	3553	3564	137003636
297	3565	3576	137003637
298	3577	3588	137003638
299	3589	3600	137003639
300	3601	3612	137003640
301	3613	3624	137003641
302	3625	3636	137003642
303	3637	3648	137003643
304	3649	3660	137003644
305	3661	3672	137003645
306	3673	3684	137003646
307	3685	3696	137003647
308	3697	3708	137003648
309	3709	3720	137003649
310	3721	3732	137003650
311	3733	3744	137003651
312	3745	3756	137003652
313	3757	3768	137003653
314	3769	3780	137003654
315	3781	3792	137003655
316	3793	3804	137003656
317	3805	3816	137003657
318	3817	3828	137003658
319	3829	3840	137003659
320	3841	3852	137003660
321	3853	3864	137003661
322	3865	3876	137003662
323	3877	3888	137003663
324	3889	3900	137003664
325	3901	3912	137003665
326	3913	3924	137003666
327	3925	3936	137003667
328	3937	3948	137003668
329	3949	3960	137003669
330	3961	3972	137003670
331	3973	3984	137003671
332	3985	3996	137003672
333	3997	4008	137003673
334	4009	4020	137003674
335	4021	4032	137003675
336	4033	4044	137003676
337	4045	4056	137003677
338	4057	4068	137003678
339	4069	4080	137003679
340	4081	4092	137003680
341	4093	4104	137003681
342	4105	4116	137003682
343	4117	4128	137003683
344	4129	4140	137003684
345	4141	4152	137003685
346	4153	4164	137003686
347	4165	4176	137003687
348	4177	4188	137003688
349	4189	4200	137003689
350	4201	4212	137003690
351	4213	4224	137003691
352	4225	4236	137003692
353	4237	4248	137003693
354	4249	4260	137003694
355	4261	4272	137003695
356	4273	4284	137003696
357	4285	4296	137003697
358	4297	4308	137003698
359	4309	4320	137003699
360	4321	4332	137003700
361	4333	4344	137003701
362	4345	4356	137003702
363	4357	4368	137003703
364	4369	4380	137003704
365	4381	4392	137003705
366	4393	4404	137003706
367	4405	4416	137003707
368	4417	4428	137003708
369	4429	4440	137003709
370	4441	4452	137003710
371	4453	4464	137003711
372	4465	4476	137003712
373	4477	4488	137003713
374	4489	4500	137003714
375	4501	4512	137003715
376	4513	4524	137003716
377	4525	4536	137003717
378	4537	4548	137003718
379	4549	4560	137003719
380	4561	4572	137003720
381	4573	4584	137003721
382	4585	4596	137003722
383	4597	4608	137003723
384	4609	4620	137003724
385	4621	4632	137003725
386	4633	4644	137003726
387	4645	4656	137003727
388	4657	4668	137003728
389	4669	4680	137003729
390	4681	4692	137003730
391	4693	4704	137003731
392	4705	4716	137003732
393	4717	4728	137003733
394	4729	4740	137003734
395	4741	4752	137003735
396	4753	4764	137003736
397	4765	4776	137003737
398	4777	4788	137003738
399	4789	4800	137003739
400	4801	4812	137003740
401	4813	4824	137003741
402	4825	4836	137003742
403	4837	4848	137003743
404	4849	4860	137003744
405	4861	4872	137003745
406	4873	4884	137003746
407	4885	4896	137003747
408	4897	4908	137003748
409	4909	4920	137003749
410	4921	4932	137003750
411	4933	4944	137003751
412	4945	4956	137003752
413	4957	4968	137003753
414	4969	4980	137003754
415	4981	4992	137003755
416	4993	5004	137003756
417	5005	5016	137003757
418	5017	5028	137003758
419	5029	5040	137003759
420	5041	5052	137003760
421	5053	5064	137003761
422	5065	5076	137003762
423	5077	5088	137003763
424	5089	5100	137003764
425	5101	5112	137003765
426	5113	5124	137003766
427	5125	5136	137003767
428	5137	5148	137003768
429	5149	5160	137003769
430	5161	5172	137003770
431	5173	5184	137003771
432	5185	5196	137003772
433	5197	5208	137003773
434	5209	5220	137003774
435	5221	5232	137003775
436	5233	5244	137003776
437	5245	5256	137003777
438	5257	5268	137003778
439	5269	5280	137003779
440	5281	5292	137003780
441	5293	5304	137003781
442	5305	5316	137003782
443	5317	5328	137003783
444	5329	5340	137003784
445	5341	5352	137003785
446	5353	5364	137003786
447	5365	5376	137003787
448	5377	5388	137003788
449	5389	5400	137003789
450	5401	5412	137003790
451	5413	5424	137003791
452	5425	5436	137003792
453	5437	5448	137003793
454	5449	5460	137003794
455	5461	5472	137003795
456	5473	5484	137003796
457	5485	5496	137003797
458	5497	5508	137003798
459	5509	5520	137003799
460	5521	5532	137003800
461	5533	5544	137003801
462	5545	5556	137003802
463	5557	5568	137003803
464	5569	5580	137003804
465	5581	5592	137003805
466	5593	5604	137003806
467	5605	5616	137003807
468	5617	5628	137003808
469	5629	5640	137003809
470	5641	5652	137003810
471	5653	5664	137003811
472	5665	5676	137003812
473	5677	5688	137003813
474	5689	5700	137003814
475	5701	5712	137003815
476	5713	5724	137003816
477	5725	5736	137003817
478	5737	5748	137003818
479	5749	5760	137003819
480	5761	5772	137003820
481	5773	5784	137003821
482	5785	5796	137003822
483	5797	5808	137003823
484	5809	5820	137003824
485	5821	5832	137003825
486	5833	5844	137003826
487	5845	5856	137003827
488	5857	5868	137003828
489	5869	5880	137003829
490	5881	5892	137003830
491	5893	5904	137003831
492	5905	5916	137003832
493	5917	5928	137003833
494	5929	5940	137003834
495	5941	5952	137003835
496	5953	5964	137003836
497	5965	5976	137003837
498	5977	5988	137003838
499	5989	6000	137003839
