0	1	12	137022355	1
1	13	24	137022356	1
2	25	36	137022357	0
3	37	48	137022358	1
4	49	60	137022359	0
5	61	72	137022360	1
6	73	84	137022361	0
7	85	96	137022362	0
8	97	108	137022363	0
9	109	120	137022364	1
10	121	132	137022365	0
11	133	144	137022366	0
12	145	156	137022367	1
13	157	168	137022368	0
14	169	180	137022369	0
15	181	192	137022370	0
16	193	204	137022371	1
17	205	216	137022372	0
18	217	228	137022373	0
19	229	240	137022374	0
20	241	252	137022375	0
21	253	264	137022376	0
22	265	276	137022377	0
23	277	288	137022378	0
24	289	300	137022379	1
25	301	312	137022380	1
26	313	324	137022381	0
27	325	336	137022382	1
28	337	348	137022383	0
29	349	360	137022384	0
30	361	372	137022385	0
31	373	384	137022386	0
32	385	396	137022387	0
33	397	408	137022388	0
34	409	420	137022389	1
35	421	432	137022390	0
36	433	444	137022391	0
37	445	456	137022392	1
38	457	468	137022393	0
39	469	480	137022394	1
40	481	492	137022395	0
41	493	504	137022396	0
42	505	516	137022397	0
43	517	528	137022398	0
44	529	540	137022399	0
45	541	552	137022400	0
46	553	564	137022401	0
47	565	576	137022402	1
48	577	588	137022403	1
49	589	600	137022404	0
50	601	612	137022405	0
51	613	624	137022406	0
52	625	636	137022407	1
53	637	648	137022408	1
54	649	660	137022409	0
55	661	672	137022410	0
56	673	684	137022411	0
57	685	696	137022412	0
58	697	708	137022413	0
59	709	720	137022414	0
60	721	732	137022415	0
61	733	744	137022416	1
62	745	756	137022417	0
63	757	768	137022418	0
64	769	780	137022419	0
65	781	792	137022420	0
66	793	804	137022421	0
67	805	816	137022422	0
68	817	828	137022423	0
69	829	840	137022424	0
70	841	852	137022425	0
71	853	864	137022426	0
72	865	876	137022427	0
73	877	888	137022428	1
74	889	900	137022429	1
75	901	912	137022430	0
76	913	924	137022431	0
77	925	936	137022432	0
78	937	948	137022433	0
79	949	960	137022434	0
80	961	972	137022435	0
81	973	984	137022436	0
82	985	996	137022437	0
83	997	1008	137022438	0
84	1009	1020	137022439	0
85	1021	1032	137022440	0
86	1033	1044	137022441	0
87	1045	1056	137022442	0
88	1057	1068	137022443	0
89	1069	1080	137022444	0
90	1081	1092	137022445	1
91	1093	1104	137022446	0
92	1105	1116	137022447	0
93	1117	1128	137022448	1
94	1129	1140	137022449	0
95	1141	1152	137022450	0
96	1153	1164	137022451	1
97	1165	1176	137022452	1
98	1177	1188	137022453	0
99	1189	1200	137022454	0
100	1201	1212	137022455	0
101	1213	1224	137022456	0
102	1225	1236	137022457	1
103	1237	1248	137022458	0
104	1249	1260	137022459	0
105	1261	1272	137022460	0
106	1273	1284	137022461	0
107	1285	1296	137022462	0
108	1297	1308	137022463	0
109	1309	1320	137022464	0
110	1321	1332	137022465	0
111	1333	1344	137022466	0
112	1345	1356	137022467	0
113	1357	1368	137022468	0
114	1369	1380	137022469	0
115	1381	1392	137022470	0
116	1393	1404	137022471	1
117	1405	1416	137022472	0
118	1417	1428	137022473	0
119	1429	1440	137022474	0
120	1441	1452	137022475	1
121	1453	1464	137022476	0
122	1465	1476	137022477	0
123	1477	1488	137022478	0
124	1489	1500	137022479	0
125	1501	1512	137022480	0
126	1513	1524	137022481	0
127	1525	1536	137022482	1
128	1537	1548	137022483	0
129	1549	1560	137022484	1
130	1561	1572	137022485	0
131	1573	1584	137022486	1
132	1585	1596	137022487	1
133	1597	1608	137022488	0
134	1609	1620	137022489	0
135	1621	1632	137022490	1
136	1633	1644	137022491	1
137	1645	1656	137022492	0
138	1657	1668	137022493	0
139	1669	1680	137022494	1
140	1681	1692	137022495	0
141	1693	1704	137022496	1
142	1705	1716	137022497	1
143	1717	1728	137022498	0
144	1729	1740	137022499	0
145	1741	1752	137022500	0
146	1753	1764	137022501	0
147	1765	1776	137022502	0
148	1777	1788	137022503	0
149	1789	1800	137022504	0
150	1801	1812	137022505	0
151	1813	1824	137022506	0
152	1825	1836	137022507	0
153	1837	1848	137022508	0
154	1849	1860	137022509	0
155	1861	1872	137022510	0
156	1873	1884	137022511	0
157	1885	1896	137022512	0
158	1897	1908	137022513	0
159	1909	1920	137022514	0
160	1921	1932	137022515	1
161	1933	1944	137022516	1
162	1945	1956	137022517	0
163	1957	1968	137022518	0
164	1969	1980	137022519	0
165	1981	1992	137022520	0
166	1993	2004	137022521	0
167	2005	2016	137022522	1
168	2017	2028	137022523	0
169	2029	2040	137022524	0
170	2041	2052	137022525	1
171	2053	2064	137022526	1
172	2065	2076	137022527	0
173	2077	2088	137022528	1
174	2089	2100	137022529	0
175	2101	2112	137022530	0
176	2113	2124	137022531	0
177	2125	2136	137022532	0
178	2137	2148	137022533	0
179	2149	2160	137022534	0
180	2161	2172	137022535	1
181	2173	2184	137022536	0
182	2185	2196	137022537	0
183	2197	2208	137022538	0
184	2209	2220	137022539	0
185	2221	2232	137022540	0
186	2233	2244	137022541	0
187	2245	2256	137022542	0
188	2257	2268	137022543	0
189	2269	2280	137022544	1
190	2281	2292	137022545	0
191	2293	2304	137022546	0
192	2305	2316	137022547	0
193	2317	2328	137022548	0
194	2329	2340	137022549	0
195	2341	2352	137022550	1
196	2353	2364	137022551	0
197	2365	2376	137022552	0
198	2377	2388	137022553	1
199	2389	2400	137022554	1
200	2401	2412	137022555	0
201	2413	2424	137022556	0
202	2425	2436	137022557	0
203	2437	2448	137022558	0
204	2449	2460	137022559	0
205	2461	2472	137022560	1
206	2473	2484	137022561	0
207	2485	2496	137022562	0
208	2497	2508	137022563	1
209	2509	2520	137022564	0
210	2521	2532	137022565	0
211	2533	2544	137022566	0
212	2545	2556	137022567	0
213	2557	2568	137022568	0
214	2569	2580	137022569	0
215	2581	2592	137022570	0
216	2593	2604	137022571	1
217	2605	2616	137022572	0
218	2617	2628	137022573	1
219	2629	2640	137022574	0
220	2641	2652	137022575	0
221	2653	2664	137022576	1
222	2665	2676	137022577	1
223	2677	2688	137022578	0
224	2689	2700	137022579	0
225	2701	2712	137022580	0
226	2713	2724	137022581	0
227	2725	2736	137022582	0
228	2737	2748	137022583	0
229	2749	2760	137022584	0
230	2761	2772	137022585	0
231	2773	2784	137022586	0
232	2785	2796	137022587	0
233	2797	2808	137022588	0
234	2809	2820	137022589	1
235	2821	2832	137022590	1
236	2833	2844	137022591	0
237	2845	2856	137022592	1
238	2857	2868	137022593	0
239	2869	2880	137022594	1
240	2881	2892	137022595	1
241	2893	2904	137022596	0
242	2905	2916	137022597	0
243	2917	2928	137022598	0
244	2929	2940	137022599	0
245	2941	2952	137022600	0
246	2953	2964	137022601	0
247	2965	2976	137022602	0
248	2977	2988	137022603	1
249	2989	3000	137022604	1
250	3001	3012	137022605	0
251	3013	3024	137022606	0
252	3025	3036	137022607	0
253	3037	3048	137022608	0
254	3049	3060	137022609	0
255	3061	3072	137022610	0
256	3073	3084	137022611	0
257	3085	3096	137022612	0
258	3097	3108	137022613	1
259	3109	3120	137022614	0
260	3121	3132	137022615	0
261	3133	3144	137022616	0
262	3145	3156	137022617	1
263	3157	3168	137022618	0
264	3169	3180	137022619	0
265	3181	3192	137022620	0
266	3193	3204	137022621	0
267	3205	3216	137022622	1
268	3217	3228	137022623	1
269	3229	3240	137022624	0
270	3241	3252	137022625	1
271	3253	3264	137022626	0
272	3265	3276	137022627	0
273	3277	3288	137022628	0
274	3289	3300	137022629	0
275	3301	3312	137022630	1
276	3313	3324	137022631	0
277	3325	3336	137022632	1
278	3337	3348	137022633	1
279	3349	3360	137022634	0
280	3361	3372	137022635	0
281	3373	3384	137022636	1
282	3385	3396	137022637	0
283	3397	3408	137022638	0
284	3409	3420	137022639	0
285	3421	3432	137022640	0
286	3433	3444	137022641	1
287	3445	3456	137022642	0
288	3457	3468	137022643	0
289	3469	3480	137022644	1
290	3481	3492	137022645	0
291	3493	3504	137022646	0
292	3505	3516	137022647	0
293	3517	3528	137022648	0
294	3529	3540	137022649	0
295	3541	3552	137022650	0
296	3553	3564	137022651	0
297	3565	3576	137022652	0
298	3577	3588	137022653	1
299	3589	3600	137022654	1
300	3601	3612	137022655	1
301	3613	3624	137022656	1
302	3625	3636	137022657	0
303	3637	3648	137022658	0
304	3649	3660	137022659	1
305	3661	3672	137022660	0
306	3673	3684	137022661	0
307	3685	3696	137022662	1
308	3697	3708	137022663	0
309	3709	3720	137022664	0
310	3721	3732	137022665	0
311	3733	3744	137022666	0
312	3745	3756	137022667	1
313	3757	3768	137022668	0
314	3769	3780	137022669	0
315	3781	3792	137022670	0
316	3793	3804	137022671	0
317	3805	3816	137022672	1
318	3817	3828	137022673	0
319	3829	3840	137022674	0
320	3841	3852	137022675	0
321	3853	3864	137022676	0
322	3865	3876	137022677	0
323	3877	3888	137022678	0
324	3889	3900	137022679	0
325	3901	3912	137022680	0
326	3913	3924	137022681	0
327	3925	3936	137022682	0
328	3937	3948	137022683	0
329	3949	3960	137022684	0
330	3961	3972	137022685	1
331	3973	3984	137022686	0
332	3985	3996	137022687	0
333	3997	4008	137022688	0
334	4009	4020	137022689	1
335	4021	4032	137022690	0
336	4033	4044	137022691	0
337	4045	4056	137022692	1
338	4057	4068	137022693	0
339	4069	4080	137022694	0
340	4081	4092	137022695	0
341	4093	4104	137022696	0
342	4105	4116	137022697	0
343	4117	4128	137022698	0
344	4129	4140	137022699	0
345	4141	4152	137022700	0
346	4153	4164	137022701	0
347	4165	4176	137022702	0
348	4177	4188	137022703	0
349	4189	4200	137022704	0
350	4201	4212	137022705	0
351	4213	4224	137022706	0
352	4225	4236	137022707	0
353	4237	4248	137022708	0
354	4249	4260	137022709	1
355	4261	4272	137022710	0
356	4273	4284	137022711	1
357	4285	4296	137022712	0
358	4297	4308	137022713	0
359	4309	4320	137022714	0
360	4321	4332	137022715	0
361	4333	4344	137022716	0
362	4345	4356	137022717	0
363	4357	4368	137022718	0
364	4369	4380	137022719	0
365	4381	4392	137022720	0
366	4393	4404	137022721	0
367	4405	4416	137022722	0
368	4417	4428	137022723	0
369	4429	4440	137022724	0
370	4441	4452	137022725	0
371	4453	4464	137022726	0
372	4465	4476	137022727	1
373	4477	4488	137022728	1
374	4489	4500	137022729	0
375	4501	4512	137022730	0
376	4513	4524	137022731	0
377	4525	4536	137022732	0
378	4537	4548	137022733	0
379	4549	4560	137022734	1
380	4561	4572	137022735	1
381	4573	4584	137022736	0
382	4585	4596	137022737	0
383	4597	4608	137022738	0
384	4609	4620	137022739	0
385	4621	4632	137022740	1
386	4633	4644	137022741	0
387	4645	4656	137022742	0
388	4657	4668	137022743	0
389	4669	4680	137022744	0
390	4681	4692	137022745	0
391	4693	4704	137022746	0
392	4705	4716	137022747	0
393	4717	4728	137022748	0
394	4729	4740	137022749	1
395	4741	4752	137022750	0
396	4753	4764	137022751	1
397	4765	4776	137022752	0
398	4777	4788	137022753	0
399	4789	4800	137022754	0
400	4801	4812	137022755	1
401	4813	4824	137022756	0
402	4825	4836	137022757	0
403	4837	4848	137022758	0
404	4849	4860	137022759	0
405	4861	4872	137022760	0
406	4873	4884	137022761	0
407	4885	4896	137022762	0
408	4897	4908	137022763	0
409	4909	4920	137022764	0
410	4921	4932	137022765	0
411	4933	4944	137022766	0
412	4945	4956	137022767	0
413	4957	4968	137022768	0
414	4969	4980	137022769	0
415	4981	4992	137022770	0
416	4993	5004	137022771	1
417	5005	5016	137022772	1
418	5017	5028	137022773	0
419	5029	5040	137022774	1
420	5041	5052	137022775	0
421	5053	5064	137022776	0
422	5065	5076	137022777	0
423	5077	5088	137022778	1
424	5089	5100	137022779	1
425	5101	5112	137022780	0
426	5113	5124	137022781	1
427	5125	5136	137022782	0
428	5137	5148	137022783	0
429	5149	5160	137022784	0
430	5161	5172	137022785	0
431	5173	5184	137022786	0
432	5185	5196	137022787	1
433	5197	5208	137022788	1
434	5209	5220	137022789	1
435	5221	5232	137022790	0
436	5233	5244	137022791	1
437	5245	5256	137022792	0
438	5257	5268	137022793	0
439	5269	5280	137022794	0
440	5281	5292	137022795	0
441	5293	5304	137022796	0
442	5305	5316	137022797	0
443	5317	5328	137022798	0
444	5329	5340	137022799	0
445	5341	5352	137022800	0
446	5353	5364	137022801	1
447	5365	5376	137022802	0
448	5377	5388	137022803	0
449	5389	5400	137022804	0
450	5401	5412	137022805	0
