0	1	12	136966215
1	13	24	136966216
2	25	36	136966217
3	37	48	136966218
4	49	60	136966219
5	61	72	136966220
6	73	84	136966221
7	85	96	136966222
8	97	108	136966223
9	109	120	136966224
10	121	132	136966225
11	133	144	136966226
12	145	156	136966227
13	157	168	136966228
14	169	180	136966229
15	181	192	136966230
16	193	204	136966231
17	205	216	136966232
18	217	228	136966233
19	229	240	136966234
20	241	252	136966235
21	253	264	136966236
22	265	276	136966237
23	277	288	136966238
24	289	300	136966239
25	301	312	136966240
26	313	324	136966241
27	325	336	136966242
28	337	348	136966243
29	349	360	136966244
30	361	372	136966245
31	373	384	136966246
32	385	396	136966247
33	397	408	136966248
34	409	420	136966249
35	421	432	136966250
36	433	444	136966251
37	445	456	136966252
38	457	468	136966253
39	469	480	136966254
40	481	492	136966255
41	493	504	136966256
42	505	516	136966257
43	517	528	136966258
44	529	540	136966259
45	541	552	136966260
46	553	564	136966261
47	565	576	136966262
48	577	588	136966263
49	589	600	136966264
50	601	612	136966265
51	613	624	136966266
52	625	636	136966267
53	637	648	136966268
54	649	660	136966269
55	661	672	136966270
56	673	684	136966271
57	685	696	136966272
58	697	708	136966273
59	709	720	136966274
60	721	732	136966275
61	733	744	136966276
62	745	756	136966277
63	757	768	136966278
64	769	780	136966279
65	781	792	136966280
66	793	804	136966281
67	805	816	136966282
68	817	828	136966283
69	829	840	136966284
70	841	852	136966285
71	853	864	136966286
72	865	876	136966287
73	877	888	136966288
74	889	900	136966289
75	901	912	136966290
76	913	924	136966291
77	925	936	136966292
78	937	948	136966293
79	949	960	136966294
80	961	972	136966295
81	973	984	136966296
82	985	996	136966297
83	997	1008	136966298
84	1009	1020	136966299
85	1021	1032	136966300
86	1033	1044	136966301
87	1045	1056	136966302
88	1057	1068	136966303
89	1069	1080	136966304
90	1081	1092	136966305
91	1093	1104	136966306
92	1105	1116	136966307
93	1117	1128	136966308
94	1129	1140	136966309
95	1141	1152	136966310
96	1153	1164	136966311
97	1165	1176	136966312
98	1177	1188	136966313
99	1189	1200	136966314
100	1201	1212	136966315
101	1213	1224	136966316
102	1225	1236	136966317
103	1237	1248	136966318
104	1249	1260	136966319
105	1261	1272	136966320
106	1273	1284	136966321
107	1285	1296	136966322
108	1297	1308	136966323
109	1309	1320	136966324
110	1321	1332	136966325
111	1333	1344	136966326
112	1345	1356	136966327
113	1357	1368	136966328
114	1369	1380	136966329
115	1381	1392	136966330
116	1393	1404	136966331
117	1405	1416	136966332
118	1417	1428	136966333
119	1429	1440	136966334
120	1441	1452	136966335
121	1453	1464	136966336
122	1465	1476	136966337
123	1477	1488	136966338
124	1489	1500	136966339
125	1501	1512	136966340
126	1513	1524	136966341
127	1525	1536	136966342
128	1537	1548	136966343
129	1549	1560	136966344
130	1561	1572	136966345
131	1573	1584	136966346
132	1585	1596	136966347
133	1597	1608	136966348
134	1609	1620	136966349
135	1621	1632	136966350
136	1633	1644	136966351
137	1645	1656	136966352
138	1657	1668	136966353
139	1669	1680	136966354
140	1681	1692	136966355
141	1693	1704	136966356
142	1705	1716	136966357
143	1717	1728	136966358
144	1729	1740	136966359
145	1741	1752	136966360
146	1753	1764	136966361
147	1765	1776	136966362
148	1777	1788	136966363
149	1789	1800	136966364
150	1801	1812	136966365
151	1813	1824	136966366
152	1825	1836	136966367
153	1837	1848	136966368
154	1849	1860	136966369
155	1861	1872	136966370
156	1873	1884	136966371
157	1885	1896	136966372
158	1897	1908	136966373
159	1909	1920	136966374
160	1921	1932	136966375
161	1933	1944	136966376
162	1945	1956	136966377
163	1957	1968	136966378
164	1969	1980	136966379
165	1981	1992	136966380
166	1993	2004	136966381
167	2005	2016	136966382
168	2017	2028	136966383
169	2029	2040	136966384
170	2041	2052	136966385
171	2053	2064	136966386
172	2065	2076	136966387
173	2077	2088	136966388
174	2089	2100	136966389
175	2101	2112	136966390
176	2113	2124	136966391
177	2125	2136	136966392
178	2137	2148	136966393
179	2149	2160	136966394
180	2161	2172	136966395
181	2173	2184	136966396
182	2185	2196	136966397
183	2197	2208	136966398
184	2209	2220	136966399
185	2221	2232	136966400
186	2233	2244	136966401
187	2245	2256	136966402
188	2257	2268	136966403
189	2269	2280	136966404
190	2281	2292	136966405
191	2293	2304	136966406
192	2305	2316	136966407
193	2317	2328	136966408
194	2329	2340	136966409
195	2341	2352	136966410
196	2353	2364	136966411
197	2365	2376	136966412
198	2377	2388	136966413
199	2389	2400	136966414
200	2401	2412	136966415
201	2413	2424	136966416
202	2425	2436	136966417
203	2437	2448	136966418
204	2449	2460	136966419
205	2461	2472	136966420
206	2473	2484	136966421
207	2485	2496	136966422
208	2497	2508	136966423
209	2509	2520	136966424
210	2521	2532	136966425
211	2533	2544	136966426
212	2545	2556	136966427
213	2557	2568	136966428
214	2569	2580	136966429
215	2581	2592	136966430
216	2593	2604	136966431
217	2605	2616	136966432
218	2617	2628	136966433
219	2629	2640	136966434
220	2641	2652	136966435
221	2653	2664	136966436
222	2665	2676	136966437
223	2677	2688	136966438
224	2689	2700	136966439
225	2701	2712	136966440
226	2713	2724	136966441
227	2725	2736	136966442
228	2737	2748	136966443
229	2749	2760	136966444
230	2761	2772	136966445
231	2773	2784	136966446
232	2785	2796	136966447
233	2797	2808	136966448
234	2809	2820	136966449
235	2821	2832	136966450
236	2833	2844	136966451
237	2845	2856	136966452
238	2857	2868	136966453
239	2869	2880	136966454
240	2881	2892	136966455
241	2893	2904	136966456
242	2905	2916	136966457
243	2917	2928	136966458
244	2929	2940	136966459
245	2941	2952	136966460
246	2953	2964	136966461
247	2965	2976	136966462
248	2977	2988	136966463
249	2989	3000	136966464
250	3001	3012	136966465
251	3013	3024	136966466
252	3025	3036	136966467
253	3037	3048	136966468
254	3049	3060	136966469
255	3061	3072	136966470
256	3073	3084	136966471
257	3085	3096	136966472
258	3097	3108	136966473
259	3109	3120	136966474
260	3121	3132	136966475
261	3133	3144	136966476
262	3145	3156	136966477
263	3157	3168	136966478
264	3169	3180	136966479
265	3181	3192	136966480
266	3193	3204	136966481
267	3205	3216	136966482
268	3217	3228	136966483
269	3229	3240	136966484
270	3241	3252	136966485
271	3253	3264	136966486
272	3265	3276	136966487
273	3277	3288	136966488
274	3289	3300	136966489
275	3301	3312	136966490
276	3313	3324	136966491
277	3325	3336	136966492
278	3337	3348	136966493
279	3349	3360	136966494
280	3361	3372	136966495
281	3373	3384	136966496
282	3385	3396	136966497
283	3397	3408	136966498
284	3409	3420	136966499
285	3421	3432	136966500
286	3433	3444	136966501
287	3445	3456	136966502
288	3457	3468	136966503
289	3469	3480	136966504
290	3481	3492	136966505
291	3493	3504	136966506
292	3505	3516	136966507
293	3517	3528	136966508
294	3529	3540	136966509
295	3541	3552	136966510
296	3553	3564	136966511
297	3565	3576	136966512
298	3577	3588	136966513
299	3589	3600	136966514
300	3601	3612	136966515
301	3613	3624	136966516
302	3625	3636	136966517
303	3637	3648	136966518
304	3649	3660	136966519
305	3661	3672	136966520
306	3673	3684	136966521
307	3685	3696	136966522
308	3697	3708	136966523
309	3709	3720	136966524
310	3721	3732	136966525
311	3733	3744	136966526
312	3745	3756	136966527
313	3757	3768	136966528
314	3769	3780	136966529
315	3781	3792	136966530
316	3793	3804	136966531
317	3805	3816	136966532
318	3817	3828	136966533
319	3829	3840	136966534
320	3841	3852	136966535
321	3853	3864	136966536
322	3865	3876	136966537
323	3877	3888	136966538
324	3889	3900	136966539
325	3901	3912	136966540
326	3913	3924	136966541
327	3925	3936	136966542
328	3937	3948	136966543
329	3949	3960	136966544
330	3961	3972	136966545
331	3973	3984	136966546
332	3985	3996	136966547
333	3997	4008	136966548
334	4009	4020	136966549
335	4021	4032	136966550
336	4033	4044	136966551
337	4045	4056	136966552
338	4057	4068	136966553
339	4069	4080	136966554
340	4081	4092	136966555
341	4093	4104	136966556
342	4105	4116	136966557
343	4117	4128	136966558
344	4129	4140	136966559
345	4141	4152	136966560
346	4153	4164	136966561
347	4165	4176	136966562
348	4177	4188	136966563
349	4189	4200	136966564
350	4201	4212	136966565
351	4213	4224	136966566
352	4225	4236	136966567
353	4237	4248	136966568
354	4249	4260	136966569
355	4261	4272	136966570
356	4273	4284	136966571
357	4285	4296	136966572
358	4297	4308	136966573
359	4309	4320	136966574
360	4321	4332	136966575
361	4333	4344	136966576
362	4345	4356	136966577
363	4357	4368	136966578
364	4369	4380	136966579
365	4381	4392	136966580
366	4393	4404	136966581
367	4405	4416	136966582
368	4417	4428	136966583
369	4429	4440	136966584
370	4441	4452	136966585
371	4453	4464	136966586
372	4465	4476	136966587
373	4477	4488	136966588
374	4489	4500	136966589
375	4501	4512	136966590
376	4513	4524	136966591
377	4525	4536	136966592
378	4537	4548	136966593
379	4549	4560	136966594
380	4561	4572	136966595
381	4573	4584	136966596
382	4585	4596	136966597
383	4597	4608	136966598
384	4609	4620	136966599
385	4621	4632	136966600
386	4633	4644	136966601
387	4645	4656	136966602
388	4657	4668	136966603
389	4669	4680	136966604
390	4681	4692	136966605
391	4693	4704	136966606
392	4705	4716	136966607
393	4717	4728	136966608
394	4729	4740	136966609
395	4741	4752	136966610
396	4753	4764	136966611
397	4765	4776	136966612
398	4777	4788	136966613
399	4789	4800	136966614
400	4801	4812	136966615
401	4813	4824	136966616
402	4825	4836	136966617
403	4837	4848	136966618
404	4849	4860	136966619
405	4861	4872	136966620
406	4873	4884	136966621
407	4885	4896	136966622
408	4897	4908	136966623
409	4909	4920	136966624
410	4921	4932	136966625
411	4933	4944	136966626
412	4945	4956	136966627
413	4957	4968	136966628
414	4969	4980	136966629
415	4981	4992	136966630
416	4993	5004	136966631
417	5005	5016	136966632
418	5017	5028	136966633
419	5029	5040	136966634
420	5041	5052	136966635
421	5053	5064	136966636
422	5065	5076	136966637
423	5077	5088	136966638
424	5089	5100	136966639
425	5101	5112	136966640
426	5113	5124	136966641
427	5125	5136	136966642
428	5137	5148	136966643
429	5149	5160	136966644
430	5161	5172	136966645
431	5173	5184	136966646
432	5185	5196	136966647
433	5197	5208	136966648
434	5209	5220	136966649
435	5221	5232	136966650
436	5233	5244	136966651
437	5245	5256	136966652
438	5257	5268	136966653
439	5269	5280	136966654
440	5281	5292	136966655
441	5293	5304	136966656
442	5305	5316	136966657
443	5317	5328	136966658
444	5329	5340	136966659
445	5341	5352	136966660
446	5353	5364	136966661
447	5365	5376	136966662
448	5377	5388	136966663
449	5389	5400	136966664
450	5401	5412	136966665
451	5413	5424	136966666
452	5425	5436	136966667
453	5437	5448	136966668
454	5449	5460	136966669
455	5461	5472	136966670
456	5473	5484	136966671
457	5485	5496	136966672
458	5497	5508	136966673
459	5509	5520	136966674
460	5521	5532	136966675
461	5533	5544	136966676
462	5545	5556	136966677
463	5557	5568	136966678
464	5569	5580	136966679
465	5581	5592	136966680
466	5593	5604	136966681
467	5605	5616	136966682
468	5617	5628	136966683
469	5629	5640	136966684
470	5641	5652	136966685
471	5653	5664	136966686
472	5665	5676	136966687
473	5677	5688	136966688
474	5689	5700	136966689
475	5701	5712	136966690
476	5713	5724	136966691
477	5725	5736	136966692
478	5737	5748	136966693
479	5749	5760	136966694
480	5761	5772	136966695
481	5773	5784	136966696
482	5785	5796	136966697
483	5797	5808	136966698
484	5809	5820	136966699
485	5821	5832	136966700
486	5833	5844	136966701
487	5845	5856	136966702
488	5857	5868	136966703
489	5869	5880	136966704
490	5881	5892	136966705
491	5893	5904	136966706
492	5905	5916	136966707
493	5917	5928	136966708
494	5929	5940	136966709
495	5941	5952	136966710
496	5953	5964	136966711
497	5965	5976	136966712
498	5977	5988	136966713
499	5989	6000	136966714
